<?xml version="1.0" encoding="UTF-8" standalone="no"?>
<!-- Created with Inkscape (http://www.inkscape.org/) -->

<svg
   xmlns:dc="http://purl.org/dc/elements/1.1/"
   xmlns:cc="http://creativecommons.org/ns#"
   xmlns:rdf="http://www.w3.org/1999/02/22-rdf-syntax-ns#"
   xmlns:svg="http://www.w3.org/2000/svg"
   xmlns="http://www.w3.org/2000/svg"
   xmlns:sodipodi="http://sodipodi.sourceforge.net/DTD/sodipodi-0.dtd"
   xmlns:inkscape="http://www.inkscape.org/namespaces/inkscape"
   width="563.48352"
   height="463.81836"
   id="svg2"
   version="1.1"
   inkscape:version="0.48.2 r9819"
   sodipodi:docname="sigh.svg">
  <defs
     id="defs4">
    <inkscape:perspective
       sodipodi:type="inkscape:persp3d"
       inkscape:vp_x="-25328.087 : -24.490523 : 1"
       inkscape:vp_y="0 : 1000 : 0"
       inkscape:vp_z="1121.2373 : 660.4668 : 1"
       inkscape:persp3d-origin="372.04724 : 350.78739 : 1"
       id="perspective3231" />
  </defs>
  <sodipodi:namedview
     id="base"
     pagecolor="#ffffff"
     bordercolor="#666666"
     borderopacity="1.0"
     inkscape:pageopacity="0.0"
     inkscape:pageshadow="2"
     inkscape:zoom="0.5"
     inkscape:cx="103.59615"
     inkscape:cy="250.30521"
     inkscape:document-units="px"
     inkscape:current-layer="layer1"
     showgrid="false"
     fit-margin-top="10"
     fit-margin-left="10"
     fit-margin-right="10"
     fit-margin-bottom="10"
     inkscape:window-width="1366"
     inkscape:window-height="703"
     inkscape:window-x="0"
     inkscape:window-y="35"
     inkscape:window-maximized="1" />
  <metadata
     id="metadata7">
    <rdf:RDF>
      <cc:Work
         rdf:about="">
        <dc:format>image/svg+xml</dc:format>
        <dc:type
           rdf:resource="http://purl.org/dc/dcmitype/StillImage" />
        <dc:title></dc:title>
      </cc:Work>
    </rdf:RDF>
  </metadata>
  <g
     inkscape:label="Layer 1"
     inkscape:groupmode="layer"
     id="layer1"
     transform="translate(-58.92575,-290.27943)">
    <flowRoot
       xml:space="preserve"
       id="flowRoot2989"
       style="font-size:40px;font-style:normal;font-weight:normal;line-height:125%;letter-spacing:0px;word-spacing:0px;fill:#000000;fill-opacity:1;stroke:none;font-family:Sans"><flowRegion
         id="flowRegion2991"><rect
           id="rect2993"
           width="50"
           height="40"
           x="625.71429"
           y="510.93362" /></flowRegion><flowPara
         id="flowPara2995" /></flowRoot>    <path
       style="fill:#4d4d4d;fill-opacity:1"
       d="m 73.518532,498.20545 c -1.287431,-1.32814 -2.4959,-5.30614 -3.310234,-10.89665 l -1.282548,-8.80491 37.9499,-49.60526 c 20.87242,-27.28285 23.67293,-30.45133 50.78122,-65.28507 l 49.28785,-63.33413 16.67053,12.7533 16.67053,12.7533 -84.56899,109.36933 c -46.51291,60.15309 -48.92363,62.36934 -49.91501,63.16901 -1.7555,1.41601 -2.13913,10.29039 4.54002,6.30612 l 6.34255,4.85218 16.68621,-20.60005 16.68621,-20.60006 16.50985,12.63038 16.50986,12.63038 -16.53954,20.71226 -16.53955,20.71225 14.06714,10.76166 14.06715,10.76166 15.85545,-21.23661 15.85551,-21.23669 16.75166,12.8165 16.75172,12.81642 -10.51189,14.82327 c -5.78156,8.15282 -12.79217,17.80397 -15.57915,21.44697 l -5.06727,6.6237 5.60775,4.29004 5.60774,4.29004 15.85545,-21.23661 15.85551,-21.23668 16.75227,12.81696 16.75233,12.81688 -9.60072,13.63098 c -5.28044,7.49709 -18.8682,25.745 -15.57976,21.44651 l -5.97905,7.81553 5.58498,4.27263 5.58498,4.27262 15.87816,-21.21911 15.87809,-21.21904 16.75245,12.81673 16.75239,12.8168 -9.60072,13.63098 c -5.28044,7.49708 -21.28423,28.90312 -17.13846,23.48396 l -7.53768,9.85291 -7.36549,0.98053 c -5.45763,0.72654 -8.51596,0.48554 -11.80679,-0.93058 C 277.12859,654.51136 250.52773,634.4909 175.77306,577.1614 120.64806,534.88639 74.633767,499.35589 73.518532,498.20545 z m 281.271368,126.70218 47.73426,-63.55981 11.68776,19.62493 16.28186,12.45596 -43.14016,56.39084 -43.14015,56.39084 -16.28187,-12.45596 -16.28186,-12.45596 z M 241.39217,500.30672 c -3.45443,-3.91361 -5.64492,-10.58462 -5.46436,-16.64124 l 0.13203,-4.42812 17.89381,-22.47417 17.8938,-22.47416 39.63725,30.32332 39.63725,30.32331 -17.88099,22.20416 -17.88098,22.20413 5.68112,4.34618 5.68113,4.34618 2.08549,-2.49653 c 1.14702,-1.3731 9.13928,-11.26474 17.76059,-21.98147 l 15.67511,-19.48496 17.16772,12.79327 17.16773,12.79328 -11.56975,14.03962 c -6.36336,7.72179 -16.44754,20.41564 -22.40926,28.20853 l -10.83954,14.16896 -53.74304,-41.2524 c -29.55881,-22.68865 -55.03995,-42.72189 -56.62511,-44.51789 z m 46.80933,4.84441 c 3.84574,-4.43681 8.59025,-10.15576 10.54337,-12.70879 l 3.55112,-4.64187 -5.95678,-4.55706 -5.95677,-4.55706 -10.02553,13.10491 -10.02552,13.10489 5.43896,4.16092 5.43897,4.16092 z m 86.80184,92.72669 c 1.34409,-2.26107 17.55783,-24.277 36.03057,-48.92432 18.47274,-24.64732 35.76838,-48.10194 38.43475,-52.12139 l 4.84795,-7.30808 17.06581,13.0557 17.0658,13.05569 -18.19534,24.79658 c -10.00744,13.63812 -26.65244,36.31569 -36.9889,50.39459 l -18.79356,25.59797 19.80378,15.1503 19.80378,15.1503 16.75264,-23.06734 16.75265,-23.06736 17.19756,13.15649 17.19757,13.15649 -15.9389,20.85699 c -8.76598,11.47166 -16.33853,21.82604 -16.82705,23.01041 -0.81332,1.97186 -0.42174,2.51027 4.64454,6.38608 l 5.53275,4.23267 16.73993,-23.07706 16.73993,-23.07709 17.19015,13.15081 17.19013,13.15081 -15.9389,20.85699 c -8.76598,11.47166 -16.33853,21.82604 -16.82705,23.01041 -0.81354,1.97232 -0.42207,2.51001 4.65356,6.39298 l 5.54178,4.23957 16.73567,-23.08031 16.7357,-23.08034 17.12932,13.10429 17.12932,13.10428 -16.90378,22.63698 -16.90377,22.63695 -5.1465,1.69527 c -3.35563,1.10532 -7.20241,1.33884 -11.05485,0.67107 l -5.90826,-1.02414 -91.96629,-70.35611 -91.96628,-70.3561 z"
       id="path3227"
       inkscape:connector-curvature="0"
       sodipodi:nodetypes="cscsscccssscccccccccccccsscccccccsscccccccsscssscccccccccccscccccccccsscccsscscsscccccccsssscccssccccccccsscccccccscccccccsscccs" />
    <rect
       style="fill:#4d4d4d;fill-opacity:1;stroke:none"
       id="rect4900"
       width="33.375"
       height="9.125"
       x="370.50336"
       y="333.42816"
       transform="matrix(0.79423719,0.60760784,-0.60760784,0.79423719,0,0)" />
    <rect
       style="fill:#4d4d4d;fill-opacity:1;stroke:none"
       id="rect4902"
       width="2.375"
       height="28.875"
       x="384.87836"
       y="318.05316"
       transform="matrix(0.79423719,0.60760784,-0.60760784,0.79423719,0,0)" />
    <rect
       style="fill:#4d4d4d;fill-opacity:1;stroke:none"
       id="rect4904"
       width="132.22897"
       height="31.112698"
       x="369.78079"
       y="112.39255"
       transform="matrix(0.79423719,0.60760784,-0.60760784,0.79423719,0,0)" />
    <text
       xml:space="preserve"
       style="font-size:20px;font-style:normal;font-weight:normal;line-height:125%;letter-spacing:0px;word-spacing:0px;fill:#000000;fill-opacity:1;stroke:none;font-family:Sans"
       x="399.70026"
       y="154.18471"
       id="text4916"
       sodipodi:linespacing="125%"
       transform="matrix(0.78072142,0.62487924,-0.62487924,0.78072142,0,0)"><tspan
         sodipodi:role="line"
         id="tspan4918"
         x="399.70026"
         y="154.18471">sigh.asia</tspan></text>
  </g>
</svg>
